"id","name","model_id:id","group_id:id","perm_read","perm_write","perm_create","perm_unlink"
"access_case_rubrica_entep","cbase.case.rubrica entep","model_case_rubrica","base.group_cbase_entep",0,0,0,0

"access_case_rubrica_case","cbase.case.rubrica case","model_case_rubrica","base.group_cbase_case",1,1,1,1

"access_case_rubrica_user","cbase.case.rubrica user","model_case_rubrica","base.group_cbase_entep",0,0,0,0

"access_case_rubrica_Admin","cbase.case.rubrica Admin","model_case_rubrica","base.group_cbase_Admin",0,0,0,0


"access_case_rubrica_centro","cbase.case.rubrica centro","model_case_rubrica","base.group_cbase_centro",0,0,0,0

"access_case_rubrica_maga","cbase.case.rubrica maga","model_case_rubrica","base.group_cbase_maga",0,0,0,0


