"id","name","model_id:id","group_id:id","perm_read","perm_write","perm_create","perm_unlink"
"access_cbase_salute_ente","cbase.cbase_salute ente","model_cbase_salute","base.group_cbase_ente",1,0,0,0
"access_cbase_statocivile_ente","cbase.cbase_statocivile ente","model_cbase_statocivile","base.group_cbase_ente",1,0,0,0
"access_cbase_parenti_ente","cbase.cbase_parenti ente","model_cbase_parenti","base.group_cbase_ente",1,0,0,0
"access_cbase_famiglia_ente","cbase.cbase_famiglia ente","model_cbase_famiglia","base.group_cbase_ente",1,0,0,0
"access_cbase_delegato_ente","cbase.cbase_delegato ente","model_cbase_delegato","base.group_cbase_ente",1,0,0,0
"access_cbase_finanze_ente","cbase.cbase_finanze ente","model_cbase_finanze","base.group_cbase_ente",1,0,0,0
"access_cbase_veicoli_ente","cbase.cbase_veicoli ente","model_cbase_veicoli","base.group_cbase_ente",1,0,0,0
"access_cbase_lavoro_ente","cbase.cbase_lavoro ente","model_cbase_lavoro","base.group_cbase_ente",1,0,0,0
"access_cbase_enti_ente","cbase.cbase_enti ente","model_cbase_enti","base.group_cbase_ente",1,0,0,0
"access_cbase_erogenti_ente","cbase.cbase_erogenti ente","model_cbase_erogenti","base.group_cbase_ente",1,1,1,0
"access_cbase_borse_ente","cbase.cbase_Borse ente","model_cbase_borse","base.group_cbase_ente",1,0,0,0
"access_cbase_definiz_ente","cbase.cbase_definiz ente","model_cbase_definiz","base.group_cbase_ente",1,0,0,0
"access_cbase_richieste_ente","cbase.cbase_richieste ente","model_cbase_richieste","base.group_cbase_ente",1,0,0,0
"access_cbase_indigente_ente","cbase.cbase_indigente ente","model_cbase_indigente","base.group_cbase_ente",1,1,1,0
"access_cbase_lavori_ente","cbase.cbase_lavori ente","model_cbase_lavori","base.group_cbase_ente",1,0,0,0
"access_cbase_patologie_ente","cbase.cbase_patologie ente","model_cbase_patologie","base.group_cbase_ente",1,0,0,0
"access_cbase_scolar_ente","cbase.cbase_scolar ente","model_cbase_scolar","base.group_cbase_ente",1,0,0,0
"access_cbase_lingue_ente","cbase.cbase_lingue ente","model_cbase_lingue","base.group_cbase_ente",1,0,0,0
"access_cbase_vistips_ente","cbase.cbase_vistips ente","model_cbase_vistips","base.group_cbase_ente",1,0,0,0
"access_cbase_straniero_ente","cbase.cbase_straniero ente","model_cbase_straniero","base.group_cbase_ente",1,1,0,0
"access_cbase_categlav_ente","cbase.cbase_categlav ente","model_cbase_categlav","base.group_cbase_ente",1,0,0,0
"access_cbase_probeco_ente","cbase.cbase_probeco ente","model_cbase_probeco","base.group_cbase_ente",1,0,0,0
"access_cbase_probabit_ente","cbase.cbase_probabit ente","model_cbase_probabit","base.group_cbase_ente",1,0,0,0
"access_cbase_abitativi_ente","cbase.cbase_abitativi ente","model_cbase_abitativi","base.group_cbase_ente",1,0,0,0
"access_cbase_tipiredd_ente","cbase.cbase_tipiredd ente","model_cbase_tipiredd","base.group_cbase_ente",1,0,0,0
"access_cbase_righeredd_ente","cbase.cbase_righeredd ente","model_cbase_righeredd","base.group_cbase_ente",1,0,0,0
"access_cbase_casa_ente","cbase.cbase_casa ente","model_cbase_casa","base.group_cbase_ente",1,0,0,0
"access_cbase_righetipicasa_ente","cbase.cbase_righetipicasa ente","model_cbase_righetipicasa","base.group_cbase_ente",1,0,0,0
"access_cbase_tipicasa_ente","cbase.cbase_tipicasa ente","model_cbase_tipicasa","base.group_cbase_ente",1,0,0,0
"access_cbase_economici_ente","cbase.cbase_economici ente","model_cbase_economici","base.group_cbase_ente",1,0,0,0
"access_cbase_diario_ente","cbase.cbase_diario ente","model_cbase_diario","base.group_cbase_ente",1,0,0,0
"access_cbase_linguepar_ente","cbase.cbase_linguepar ente","model_cbase_linguepar","base.group_cbase_ente",1,0,0,0






"access_cbase_salute_entep","cbase.cbase_salute entep","model_cbase_salute","base.group_cbase_entep",1,0,0,0
"access_cbase_statocivile_entep","cbase.cbase_statocivile entep","model_cbase_statocivile","base.group_cbase_entep",1,0,0,0
"access_cbase_parenti_entep","cbase.cbase_parenti entep","model_cbase_parenti","base.group_cbase_entep",1,0,0,0
"access_cbase_famiglia_entep","cbase.cbase_famiglia entep","model_cbase_famiglia","base.group_cbase_entep",1,0,0,0
"access_cbase_delegato_entep","cbase.cbase_delegato entep","model_cbase_delegato","base.group_cbase_entep",1,0,0,0
"access_cbase_finanze_entep","cbase.cbase_finanze entep","model_cbase_finanze","base.group_cbase_entep",1,0,0,0
"access_cbase_veicoli_entep","cbase.cbase_veicoli entep","model_cbase_veicoli","base.group_cbase_entep",1,0,0,0
"access_cbase_lavoro_entep","cbase.cbase_lavoro entep","model_cbase_lavoro","base.group_cbase_entep",1,0,0,0
"access_cbase_enti_entep","cbase.cbase_enti entep","model_cbase_enti","base.group_cbase_entep",1,0,0,0
"access_cbase_erogenti_entep","cbase.cbase_erogenti entep","model_cbase_erogenti","base.group_cbase_entep",1,1,1,0
"access_cbase_borse_entep","cbase.cbase_Borse entep","model_cbase_borse","base.group_cbase_entep",1,0,0,0
"access_cbase_definiz_entep","cbase.cbase_definiz entep","model_cbase_definiz","base.group_cbase_entep",1,0,0,0
"access_cbase_richieste_entep","cbase.cbase_richieste entep","model_cbase_richieste","base.group_cbase_entep",1,0,0,0
"access_cbase_indigente_entep","cbase.cbase_indigente entep","model_cbase_indigente","base.group_cbase_entep",1,1,1,0
"access_cbase_lavori_entep","cbase.cbase_lavori entep","model_cbase_lavori","base.group_cbase_entep",1,0,0,0
"access_cbase_patologie_entep","cbase.cbase_patologie entep","model_cbase_patologie","base.group_cbase_entep",1,0,0,0
"access_cbase_scolar_entep","cbase.cbase_scolar entep","model_cbase_scolar","base.group_cbase_entep",1,0,0,0
"access_cbase_lingue_entep","cbase.cbase_lingue entep","model_cbase_lingue","base.group_cbase_entep",1,0,0,0
"access_cbase_vistips_entep","cbase.cbase_vistips entep","model_cbase_vistips","base.group_cbase_entep",1,0,0,0
"access_cbase_straniero_entep","cbase.cbase_straniero ente","model_cbase_straniero","base.group_cbase_ente",1,1,0,0
"access_cbase_categlav_entep","cbase.cbase_categlav entep","model_cbase_categlav","base.group_cbase_entep",1,0,0,0
"access_cbase_probeco_entep","cbase.cbase_probeco entep","model_cbase_probeco","base.group_cbase_entep",1,0,0,0
"access_cbase_probabit_entep","cbase.cbase_probabit entep","model_cbase_probabit","base.group_cbase_entep",1,0,0,0
"access_cbase_abitativi_entep","cbase.cbase_abitativi entep","model_cbase_abitativi","base.group_cbase_entep",1,0,0,0
"access_cbase_tipiredd_entep","cbase.cbase_tipiredd entep","model_cbase_tipiredd","base.group_cbase_entep",1,0,0,0
"access_cbase_righeredd_entep","cbase.cbase_righeredd entep","model_cbase_righeredd","base.group_cbase_entep",1,0,0,0
"access_cbase_casa_entep","cbase.cbase_casa entep","model_cbase_casa","base.group_cbase_entep",1,0,0,0
"access_cbase_righetipicasa_entep","cbase.cbase_righetipicasa entep","model_cbase_righetipicasa","base.group_cbase_entep",1,0,0,0
"access_cbase_tipicasa_entep","cbase.cbase_tipicasa entep","model_cbase_tipicasa","base.group_cbase_entep",1,0,0,0
"access_cbase_economici_entep","cbase.cbase_economici entep","model_cbase_economici","base.group_cbase_entep",1,0,0,0
"access_cbase_diario_entep","cbase.cbase_diario entep","model_cbase_diario","base.group_cbase_entep",1,0,0,0
"access_cbase_linguepar_entep","cbase.cbase_linguepar entep","model_cbase_linguepar","base.group_cbase_entep",1,0,0,0




"access_cbase_salute_Admin","cbase.cbase_salute Admin","model_cbase_salute","base.group_cbase_Admin",1,1,1,1
"access_cbase_statocivile_Admin","cbase.cbase_statocivile Admin","model_cbase_statocivile","base.group_cbase_Admin",1,1,1,1
"access_cbase_parenti_Admin","cbase.cbase_parenti Admin","model_cbase_parenti","base.group_cbase_Admin",1,1,1,1
"access_cbase_famiglia_Admin","cbase.cbase_famiglia Admin","model_cbase_famiglia","base.group_cbase_Admin",1,1,1,1
"access_cbase_delegato_Admin","cbase.cbase_delegato Admin","model_cbase_delegato","base.group_cbase_Admin",1,1,1,1
"access_cbase_finanze_Admin","cbase.cbase_finanze Admin","model_cbase_finanze","base.group_cbase_Admin",1,1,1,1
"access_cbase_veicoli_Admin","cbase.cbase_veicoli Admin","model_cbase_veicoli","base.group_cbase_Admin",1,1,1,1
"access_cbase_lavoro_Admin","cbase.cbase_lavoro Admin","model_cbase_lavoro","base.group_cbase_Admin",1,1,1,1
"access_cbase_enti_Admin","cbase.cbase_enti Admin","model_cbase_enti","base.group_cbase_Admin",1,0,0,0
"access_cbase_erogenti_Admin","cbase.cbase_erogenti Admin","model_cbase_erogenti","base.group_cbase_Admin",1,1,1,1
"access_cbase_borse_Admin","cbase.cbase_Borse Admin","model_cbase_borse","base.group_cbase_Admin",1,1,1,1
"access_cbase_definiz_Admin","cbase.cbase_definiz Admin","model_cbase_definiz","base.group_cbase_Admin",1,0,0,0
"access_cbase_richieste_Admin","cbase.cbase_richieste Admin","model_cbase_richieste","base.group_cbase_Admin",1,1,1,1
"access_cbase_indigente_Admin","cbase.cbase_indig Admin","model_cbase_indigente","base.group_cbase_Admin",1,1,1,1
"access_cbase_lavori_Admin","cbase.cbase_lavori Admin","model_cbase_lavori","base.group_cbase_Admin",1,0,0,0
"access_cbase_patologie_Admin","cbase.cbase_patologie Admin","model_cbase_patologie","base.group_cbase_Admin",1,0,0,0
"access_cbase_scolar_Admin","cbase.cbase_scolar Admin","model_cbase_scolar","base.group_cbase_Admin",1,0,0,0
"access_cbase_lingue_Admin","cbase.cbase_lingue Admin","model_cbase_lingue","base.group_cbase_Admin",1,0,0,0
"access_cbase_vistips_Admin","cbase.cbase_vistips Admin","model_cbase_vistips","base.group_cbase_Admin",1,0,0,0
"access_cbase_straniero_Admin","cbase.cbase_straniero Admin","model_cbase_straniero","base.group_cbase_Admin",1,1,1,1
"access_cbase_categlav_Admin","cbase.cbase_categlav Admin","model_cbase_categlav","base.group_cbase_Admin",1,1,1,1
"access_cbase_probeco_Admin","cbase.cbase_probeco Admin","model_cbase_probeco","base.group_cbase_Admin",1,1,1,1
"access_cbase_probabit_Admin","cbase.cbase_probabit Admin","model_cbase_probabit","base.group_cbase_Admin",1,1,1,1
"access_cbase_abitativi_Admin","cbase.cbase_abitativi Admin","model_cbase_abitativi","base.group_cbase_Admin",1,0,0,0
"access_cbase_tipiredd_Admin","cbase.cbase_tipiredd Admin","model_cbase_tipiredd","base.group_cbase_Admin",1,1,1,1
"access_cbase_righeredd_Admin","cbase.cbase_righeredd Admin","model_cbase_righeredd","base.group_cbase_Admin",1,1,1,1
"access_cbase_casa_Admin","cbase.cbase_casa Admin","model_cbase_casa","base.group_cbase_Admin",1,1,1,1
"access_cbase_righetipicasa_Admin","cbase.cbase_righetipicasa Admin","model_cbase_righetipicasa","base.group_cbase_Admin",1,1,1,1
"access_cbase_tipicasa_Admin","cbase.cbase_tipicasa Admin","model_cbase_tipicasa","base.group_cbase_Admin",1,1,1,1
"access_cbase_economici_Admin","cbase.cbase_economici Admin","model_cbase_economici","base.group_cbase_Admin",1,0,0,0
"access_cbase_diario_Admin","cbase.cbase_diario Admin","model_cbase_diario","base.group_cbase_Admin",1,1,1,1
"access_cbase_linguepar_Admin","cbase.cbase_linguepar Admin","model_cbase_linguepar","base.group_cbase_Admin",1,1,1,1

"access_cbase_salute_Config","cbase.cbase_salute Config","model_cbase_salute","base.group_cbase_Config",1,0,0,0
"access_cbase_statocivile_Config","cbase.cbase_statocivile Config","model_cbase_statocivile","base.group_cbase_Config",1,0,0,0
"access_cbase_parenti_Config","cbase.cbase_parenti Config","model_cbase_parenti","base.group_cbase_Config",1,0,0,0
"access_cbase_famiglia_Config","cbase.cbase_famiglia Config","model_cbase_famiglia","base.group_cbase_Config",1,0,0,0
"access_cbase_delegato_Config","cbase.cbase_delegato Config","model_cbase_delegato","base.group_cbase_Config",1,0,0,0
"access_cbase_finanze_Config","cbase.cbase_finanze Config","model_cbase_finanze","base.group_cbase_Config",1,0,0,0
"access_cbase_veicoli_Config","cbase.cbase_veicoli Config","model_cbase_veicoli","base.group_cbase_Config",1,0,0,0
"access_cbase_lavoro_Config","cbase.cbase_lavoro Config","model_cbase_lavoro","base.group_cbase_Config",1,0,0,0
"access_cbase_enti_Config","cbase.cbase_enti Config","model_cbase_enti","base.group_cbase_Config",1,0,0,0
"access_cbase_erogenti_Config","cbase.cbase_erogenti Config","model_cbase_erogenti","base.group_cbase_Config",1,1,1,0
"access_cbase_borse_Config","cbase.cbase_Borse Config","model_cbase_borse","base.group_cbase_Config",1,0,0,0
"access_cbase_definiz_Config","cbase.cbase_definiz Config","model_cbase_definiz","base.group_cbase_Config",1,0,0,0
"access_cbase_richieste_Config","cbase.cbase_richieste Config","model_cbase_richieste","base.group_cbase_Config",1,1,1,1
"access_cbase_indigente_Config","cbase.cbase_indig Config","model_cbase_indigente","base.group_cbase_Config",1,0,0,0
"access_cbase_lavori_Config","cbase.cbase_lavori Config","model_cbase_lavori","base.group_cbase_Config",1,1,1,1
"access_cbase_patologie_Config","cbase.cbase_patologie Config","model_cbase_patologie","base.group_cbase_Config",1,1,1,1
"access_cbase_scolar_Config","cbase.cbase_scolar Config","model_cbase_scolar","base.group_cbase_Config",1,1,1,1
"access_cbase_lingue_Config","cbase.cbase_lingue Config","model_cbase_lingue","base.group_cbase_Config",1,1,1,1
"access_cbase_vistips_Config","cbase.cbase_vistips Config","model_cbase_vistips","base.group_cbase_Config",1,1,1,1
"access_cbase_straniero_Config","cbase.cbase_straniero Config","model_cbase_straniero","base.group_cbase_Config",1,0,0,0
"access_cbase_categlav_Config","cbase.cbase_categlav Config","model_cbase_categlav","base.group_cbase_Config",1,0,0,0
"access_cbase_probeco_Config","cbase.cbase_probeco Config","model_cbase_probeco","base.group_cbase_Config",1,0,0,0
"access_cbase_probabit_Config","cbase.cbase_probabit Config","model_cbase_probabit","base.group_cbase_Config",1,0,0,0
"access_cbase_abitativi_Config","cbase.cbase_abitativi Config","model_cbase_abitativi","base.group_cbase_Config",1,1,1,1
"access_cbase_tipiredd_Config","cbase.cbase_tipiredd Config","model_cbase_tipiredd","base.group_cbase_Config",1,1,1,1
"access_cbase_righeredd_Config","cbase.cbase_righeredd Config","model_cbase_righeredd","base.group_cbase_Config",1,0,0,0
"access_cbase_casa_Config","cbase.cbase_casa Config","model_cbase_casa","base.group_cbase_Config",1,0,0,0
"access_cbase_righetipicasa_Config","cbase.cbase_righetipicasa Config","model_cbase_righetipicasa","base.group_cbase_Config",1,0,0,0
"access_cbase_tipicasa_Config","cbase.cbase_tipicasa Config","model_cbase_tipicasa","base.group_cbase_Config",1,0,0,0
"access_cbase_economici_Config","cbase.cbase_economici Config","model_cbase_economici","base.group_cbase_Config",1,1,1,1
"access_cbase_diario_Config","cbase.cbase_diario Config","model_cbase_diario","base.group_cbase_Config",1,0,0,0
"access_cbase_linguepar_Config","cbase.cbase_linguepar Config","model_cbase_linguepar","base.group_cbase_Config",1,1,1,1



"access_cbase_salute_contavv","cbase.cbase_salute contavv","model_cbase_salute","base.group_cbase_contavv",1,1,1,0
"access_cbase_statocivile_contavv","cbase.cbase_statocivile contavv","model_cbase_statocivile","base.group_cbase_contavv",1,0,0,0
"access_cbase_parenti_contavv","cbase.cbase_parenti contavv","model_cbase_parenti","base.group_cbase_contavv",1,1,1,0
"access_cbase_famiglia_contavv","cbase.cbase_famiglia contavv","model_cbase_famiglia","base.group_cbase_contavv",1,1,1,0
"access_cbase_delegato_contavv","cbase.cbase_delegato contavv","model_cbase_delegato","base.group_cbase_contavv",1,1,1,0
"access_cbase_finanze_contavv","cbase.cbase_finanze contavv","model_cbase_finanze","base.group_cbase_contavv",1,1,1,0
"access_cbase_veicoli_contavv","cbase.cbase_veicoli contavv","model_cbase_veicoli","base.group_cbase_contavv",1,1,1,0
"access_cbase_lavoro_contavv","cbase.cbase_lavoro contavv","model_cbase_lavoro","base.group_cbase_contavv",1,1,1,0
"access_cbase_enti_contavv","cbase.cbase_enti contavv","model_cbase_enti","base.group_cbase_contavv",1,0,0,0
"access_cbase_erogenti_contavv","cbase.cbase_erogenti contavv","model_cbase_erogenti","base.group_cbase_contavv",1,1,1,0
"access_cbase_borse_contavv","cbase.cbase_Borse contavv","model_cbase_borse","base.group_cbase_contavv",1,1,1,0
"access_cbase_definiz_contavv","cbase.cbase_definiz contavv","model_cbase_definiz","base.group_cbase_contavv",1,1,1,0
"access_cbase_richieste_contavv","cbase.cbase_richieste contavv","model_cbase_richieste","base.group_cbase_contavv",1,1,1,0
"access_cbase_indigente_contavv","cbase.cbase_indig contavv","model_cbase_indigente","base.group_cbase_contavv",1,1,1,0



"access_cbase_salute_centro","cbase.cbase_salute centro","model_cbase_salute","base.group_cbase_centro",1,1,1,1
"access_cbase_statocivile_centro","cbase.cbase_statocivile centro","model_cbase_statocivile","base.group_cbase_centro",1,0,0,0
"access_cbase_parenti_centro","cbase.cbase_parenti centro","model_cbase_parenti","base.group_cbase_centro",1,1,1,1
"access_cbase_famiglia_centro","cbase.cbase_famiglia centro","model_cbase_famiglia","base.group_cbase_centro",1,1,1,1
"access_cbase_delegato_centro","cbase.cbase_delegato centro","model_cbase_delegato","base.group_cbase_centro",1,1,1,0
"access_cbase_finanze_centro","cbase.cbase_finanze centro","model_cbase_finanze","base.group_cbase_centro",1,1,1,1
"access_cbase_veicoli_centro","cbase.cbase_veicoli centro","model_cbase_veicoli","base.group_cbase_centro",1,1,1,1
"access_cbase_lavoro_centro","cbase.cbase_lavoro centro","model_cbase_lavoro","base.group_cbase_centro",1,1,1,1
"access_cbase_enti_centro","cbase.cbase_enti centro","model_cbase_enti","base.group_cbase_centro",1,0,0,0
"access_cbase_erogenti_centro","cbase.cbase_erogenti centro","model_cbase_erogenti","base.group_cbase_centro",1,1,1,0
"access_cbase_borse_centro","cbase.cbase_Borse centro","model_cbase_borse","base.group_cbase_centro",1,1,1,1
"access_cbase_definiz_centro","cbase.cbase_definiz centro","model_cbase_definiz","base.group_cbase_centro",1,1,1,0
"access_cbase_richieste_centro","cbase.cbase_richieste centro","model_cbase_richieste","base.group_cbase_centro",1,1,1,0
"access_cbase_indigente_centro","cbase.cbase_indig centro","model_cbase_indigente","base.group_cbase_centro",1,1,1,0
"access_cbase_lavori_centro","cbase.cbase_lavori centro","model_cbase_lavori","base.group_cbase_centro",1,1,1,0
"access_cbase_patologie_centro","cbase.cbase_patologie centro","model_cbase_patologie","base.group_cbase_centro",1,1,1,0
"access_cbase_scolar_centro","cbase.cbase_scolar centro","model_cbase_scolar","base.group_cbase_centro",1,1,1,0
"access_cbase_lingue_centro","cbase.cbase_lingue centro","model_cbase_lingue","base.group_cbase_centro",1,1,1,0
"access_cbase_vistips_centro","cbase.cbase_vistips centro","model_cbase_vistips","base.group_cbase_centro",1,0,0,0
"access_cbase_straniero_centro","cbase.cbase_straniero centro","model_cbase_straniero","base.group_cbase_centro",1,1,1,0
"access_cbase_categlav_centro","cbase.cbase_categlav centro","model_cbase_categlav","base.group_cbase_centro",1,1,1,0
"access_cbase_probeco_centro","cbase.cbase_probeco centro","model_cbase_probeco","base.group_cbase_centro",1,1,1,0
"access_cbase_probabit_centro","cbase.cbase_probabit centro","model_cbase_probabit","base.group_cbase_centro",1,1,1,0
"access_cbase_abitativi_centro","cbase.cbase_abitativi centro","model_cbase_abitativi","base.group_cbase_centro",1,0,0,0
"access_cbase_tipiredd_centro","cbase.cbase_tipiredd centro","model_cbase_tipiredd","base.group_cbase_centro",1,0,0,0
"access_cbase_righeredd_centro","cbase.cbase_righeredd centro","model_cbase_righeredd","base.group_cbase_centro",1,1,1,1
"access_cbase_casa_centro","cbase.cbase_casa centro","model_cbase_casa","base.group_cbase_centro",1,1,1,1
"access_cbase_righetipicasa_centro","cbase.cbase_righetipicasa centro","model_cbase_righetipicasa","base.group_cbase_centro",1,1,1,1
"access_cbase_tipicasa_centro","cbase.cbase_tipicasa centro","model_cbase_tipicasa","base.group_cbase_centro",1,1,1,0
"access_cbase_economici_centro","cbase.cbase_economici centro","model_cbase_economici","base.group_cbase_centro",1,0,0,0
"access_cbase_diario_centro","cbase.cbase_diario centro","model_cbase_diario","base.group_cbase_centro",1,1,1,0
"access_cbase_linguepar_centro","cbase.cbase_linguepar centro","model_cbase_linguepar","base.group_cbase_centro",1,1,1,0
"access_cbase_statistiche_centro","cbase.cbase_stats centro","model_cbase_stats","base.group_cbase_centro",1,1,1,0




"access_cbase_salute_maga","cbase.cbase_salute maga","model_cbase_salute","base.group_cbase_maga",1,0,0,0
"access_cbase_statocivile_maga","cbase.cbase_statocivile maga","model_cbase_statocivile","base.group_cbase_maga",1,0,0,0
"access_cbase_parenti_maga","cbase.cbase_parenti maga","model_cbase_parenti","base.group_cbase_maga",1,0,0,0
"access_cbase_famiglia_maga","cbase.cbase_famiglia maga","model_cbase_famiglia","base.group_cbase_maga",1,0,0,0
"access_cbase_delegato_maga","cbase.cbase_delegato maga","model_cbase_delegato","base.group_cbase_maga",1,1,1,0
"access_cbase_finanze_maga","cbase.cbase_finanze maga","model_cbase_finanze","base.group_cbase_maga",1,0,0,0
"access_cbase_veicoli_maga","cbase.cbase_veicoli maga","model_cbase_veicoli","base.group_cbase_maga",1,0,0,0
"access_cbase_lavoro_maga","cbase.cbase_lavoro maga","model_cbase_lavoro","base.group_cbase_maga",1,0,0,0
"access_cbase_enti_maga","cbase.cbase_enti maga","model_cbase_enti","base.group_cbase_maga",1,0,0,0
"access_cbase_erogenti_maga","cbase.cbase_erogenti maga","model_cbase_erogenti","base.group_cbase_maga",1,0,0,0
"access_cbase_borse_maga","cbase.cbase_Borse maga","model_cbase_borse","base.group_cbase_maga",1,1,1,0
"access_cbase_definiz_maga","cbase.cbase_definiz maga","model_cbase_definiz","base.group_cbase_maga",1,0,0,0
"access_cbase_richieste_maga","cbase.cbase_richieste maga","model_cbase_richieste","base.group_cbase_maga",1,0,0,0
"access_cbase_indigente_maga","cbase.cbase_indig maga","model_cbase_indigente","base.group_cbase_maga",1,1,1,0
"access_cbase_lavori_maga","cbase.cbase_lavori maga","model_cbase_lavori","base.group_cbase_maga",1,1,0,0
"access_cbase_patologie_maga","cbase.cbase_patologie maga","model_cbase_patologie","base.group_cbase_maga",1,1,0,0
"access_cbase_scolar_maga","cbase.cbase_scolar maga","model_cbase_scolar","base.group_cbase_maga",1,1,0,0
"access_cbase_lingue_maga","cbase.cbase_lingue maga","model_cbase_lingue","base.group_cbase_maga",1,0,0,0
"access_cbase_vistips_maga","cbase.cbase_vistips maga","model_cbase_vistips","base.group_cbase_maga",1,1,0,0
"access_cbase_straniero_maga","cbase.cbase_straniero maga","model_cbase_straniero","base.group_cbase_maga",1,1,0,0
"access_cbase_categlav_maga","cbase.cbase_categlav maga","model_cbase_categlav","base.group_cbase_maga",1,0,0,0
"access_cbase_probeco_maga","cbase.cbase_probeco maga","model_cbase_probeco","base.group_cbase_maga",1,0,0,0
"access_cbase_probabit_maga","cbase.cbase_probabit maga","model_cbase_probabit","base.group_cbase_maga",1,0,0,0
"access_cbase_abitativi_maga","cbase.cbase_abitativi maga","model_cbase_abitativi","base.group_cbase_maga",1,0,0,0
"access_cbase_tipiredd_maga","cbase.cbase_tipiredd maga","model_cbase_tipiredd","base.group_cbase_maga",1,0,0,0
"access_cbase_righeredd_maga","cbase.cbase_righeredd maga","model_cbase_righeredd","base.group_cbase_maga",1,0,0,0
"access_cbase_casa_maga","cbase.cbase_casa maga","model_cbase_casa","base.group_cbase_maga",1,0,0,0
"access_cbase_righetipicasa_maga","cbase.cbase_righetipicasa maga","model_cbase_righetipicasa","base.group_cbase_maga",1,0,0,0
"access_cbase_tipicasa_maga","cbase.cbase_tipicasa maga","model_cbase_tipicasa","base.group_cbase_maga",1,0,0,0
"access_cbase_economici_maga","cbase.cbase_economici maga","model_cbase_economici","base.group_cbase_maga",1,0,0,0
"access_cbase_diario_maga","cbase.cbase_diario maga","model_cbase_diario","base.group_cbase_maga",0,0,0,0
"access_cbase_linguepar_maga","cbase.cbase_linguepar maga","model_cbase_linguepar","base.group_cbase_maga",0,0,0,0


"access_cbase_definizval_Admin","cbase.cbase_definizval Admin","model_cbase_definizval","base.group_cbase_Admin",1,0,0,0
"access_cbase_definizval_Dioc","cbase.cbase_definizval Dioc","model_cbase_definizval","base.group_cbase_Dioc",1,0,0,0
"access_cbase_definizval_Config","cbase.cbase_definizval Config","model_cbase_definizval","base.group_cbase_Config",1,1,1,1
"access_cbase_definizval_user","cbase.cbase_definizval user","model_cbase_definizval","base.group_cbase_user",1,0,0,0
"access_cbase_definizval_entep","cbase.cbase_definizval entep","model_cbase_definizval","base.group_cbase_entep",1,0,0,0
"access_cbase_definizval_ente","cbase.cbase_definizval ente","model_cbase_definizval","base.group_cbase_ente",1,0,0,0
"access_cbase_definizval_volontari","cbase.cbase_definizval volontari","model_cbase_definizval","base.group_cbase_volontari",1,0,0,0
"access_cbase_definizval_centro","cbase.cbase_definizval centro","model_cbase_definizval","base.group_cbase_centro",1,0,0,0
"access_cbase_definizval_maga","cbase.cbase_definizval maga","model_cbase_definizval","base.group_cbase_maga",1,0,0,0
"access_cbase_definizval_cons","cbase.cbase_definizval cons","model_cbase_definizval","base.group_cbase_cons",1,0,0,0
"access_cbase_definizval_superm","cbase.cbase_definizval superm","model_cbase_definizval","base.group_cbase_superm",1,0,0,0
"access_cbase_definizval_contavv","cbase.cbase_definizval contavv","model_cbase_definizval","base.group_cbase_contavv",1,0,0,0
"access_cbase_definizval_case","cbase.cbase_definizval case","model_cbase_definizval","base.group_cbase_case",1,0,0,0
"access_cbase_definizval_lavoro","cbase.cbase_definizval lavoro","model_cbase_definizval","base.group_cbase_lavoro",1,0,0,0


"access_cbase_enti_progetto_casa_Conf","cbase.cbase_enti progetto_casa_Conf","model_cbase_enti","base.group_cbase_progetto_casa_Conf",1,0,0,0
"access_cbase_enti_progetto_casa_superv","cbase.cbase_enti progetto_casa_superv","model_cbase_enti","base.group_cbase_progetto_casa_superv",1,0,0,0
"access_cbase_enti_progetto_casa_user","cbase.cbase_enti progetto_casa_user","model_cbase_enti","base.group_cbase_progetto_casa_user",1,0,0,0


"access_cbase_codenazioni_Admin","cbase.cbase_codenazioni Admin","model_cbase_codenazioni","base.group_cbase_Admin",1,0,0,0
"access_cbase_codenazioni_Dioc","cbase.cbase_codenazioni Dioc","model_cbase_codenazioni","base.group_cbase_Dioc",1,0,0,0
"access_cbase_codenazioni_Config","cbase.cbase_codenazioni Config","model_cbase_codenazioni","base.group_cbase_Config",1,1,1,1
"access_cbase_codenazioni_user","cbase.cbase_codenazioni user","model_cbase_codenazioni","base.group_cbase_user",1,0,0,0
"access_cbase_codenazioni_entep","cbase.cbase_codenazioni entep","model_cbase_codenazioni","base.group_cbase_entep",1,0,0,0
"access_cbase_codenazioni_ente","cbase.cbase_codenazioni ente","model_cbase_codenazioni","base.group_cbase_ente",1,0,0,0
"access_cbase_codenazioni_volontari","cbase.cbase_codenazioni volontari","model_cbase_codenazioni","base.group_cbase_volontari",1,0,0,0
"access_cbase_codenazioni_centro","cbase.cbase_codenazioni centro","model_cbase_codenazioni","base.group_cbase_centro",1,0,0,0
"access_cbase_codenazioni_maga","cbase.cbase_codenazioni maga","model_cbase_codenazioni","base.group_cbase_maga",1,0,0,0
"access_cbase_codenazioni_cons","cbase.cbase_codenazioni cons","model_cbase_codenazioni","base.group_cbase_cons",1,0,0,0
"access_cbase_codenazioni_superm","cbase.cbase_codenazioni superm","model_cbase_codenazioni","base.group_cbase_superm",1,0,0,0
"access_cbase_codenazioni_contavv","cbase.cbase_codenazioni contavv","model_cbase_codenazioni","base.group_cbase_contavv",1,0,0,0
"access_cbase_codenazioni_case","cbase.cbase_codenazioni case","model_cbase_codenazioni","base.group_cbase_case",1,0,0,0
"access_cbase_codenazioni_farmaci_base","cbase.cbase_codenazioni farmaci_base","model_cbase_codenazioni","base.group_cbase_farmaci_base",1,0,0,0
"access_cbase_codenazioni_vestiario_base","cbase.cbase_codenazioni vestiario_base","model_cbase_codenazioni","base.group_cbase_vestiario_base",1,0,0,0
"access_cbase_codenazioni_mensa_base","cbase.cbase_codenazioni mensa_base","model_cbase_codenazioni","base.group_cbase_mensa_base",1,0,0,0
"access_cbase_codenazioni_lavoro","cbase.cbase_codenazioni lavoro","model_cbase_codenazioni","base.group_cbase_lavoro",1,0,0,0
"access_cbase_codenazioni_ssper","cbase.cbase_codenazioni ssper","model_cbase_codenazioni","base.group_cbase_ssper",1,0,0,0
"access_cbase_codenazioni_progetto_casa_Conf","cbase.cbase_codenazioni progetto_casa_Conf","model_cbase_codenazioni","base.group_cbase_progetto_casa_Conf",1,0,0,0
"access_cbase_codenazioni_progetto_casa_superv","cbase.cbase_codenazioni progetto_casa_superv","model_cbase_codenazioni","base.group_cbase_progetto_casa_superv",1,0,0,0
"access_cbase_codenazioni_progetto_casa_user","cbase.cbase_codenazioni progetto_casa_user","model_cbase_codenazioni","base.group_cbase_progetto_casa_user",1,0,0,0


"access_res_country_Admin","res.res_country Admin","model_res_country","base.group_cbase_Admin",1,0,0,0
"access_res_country_Dioc","res.res_country Dioc","model_res_country","base.group_cbase_Dioc",1,0,0,0
"access_res_country_Config","res.res_country Config","model_res_country","base.group_cbase_Config",1,1,1,1
"access_res_country_user","res.res_country user","model_res_country","base.group_cbase_user",1,0,0,0
"access_res_country_entep","res.res_country entep","model_res_country","base.group_cbase_entep",1,0,0,0
"access_res_country_ente","res.res_country ente","model_res_country","base.group_cbase_ente",1,0,0,0
"access_res_country_volontari","res.res_country volontari","model_res_country","base.group_cbase_volontari",1,0,0,0
"access_res_country_centro","res.res_country centro","model_res_country","base.group_cbase_centro",1,0,0,0
"access_res_country_maga","res.res_country maga","model_res_country","base.group_cbase_maga",1,0,0,0
"access_res_country_cons","res.res_country cons","model_res_country","base.group_cbase_cons",1,0,0,0
"access_res_country_superm","res.res_country superm","model_res_country","base.group_cbase_superm",1,0,0,0
"access_res_country_contavv","res.res_country contavv","model_res_country","base.group_cbase_contavv",1,0,0,0
"access_res_country_case","res.res_country case","model_res_country","base.group_cbase_case",1,0,0,0
"access_res_country_farmaci_base","res.res_country farmaci_base","model_res_country","base.group_cbase_farmaci_base",1,0,0,0
"access_res_country_vestiario_base","res.res_country vestiario_base","model_res_country","base.group_cbase_vestiario_base",1,0,0,0
"access_res_country_mensa_base","res.res_country mensa_base","model_res_country","base.group_cbase_mensa_base",1,0,0,0
"access_res_country_lavoro","res.res_country lavoro","model_res_country","base.group_cbase_lavoro",1,0,0,0
"access_res_country_ssper","res.res_country ssper","model_res_country","base.group_cbase_ssper",1,0,0,0
"access_res_country_progetto_casa_Conf","res.res_country progetto_casa_Conf","model_res_country","base.group_cbase_progetto_casa_Conf",1,0,0,0
"access_res_country_progetto_casa_superv","res.res_country progetto_casa_superv","model_res_country","base.group_cbase_progetto_casa_superv",1,0,0,0
"access_res_country_progetto_casa_user","res.res_country progetto_casa_user","model_res_country","base.group_cbase_progetto_casa_user",1,0,0,0



