"id","name","model_id:id","group_id:id","perm_read","perm_write","perm_create","perm_unlink"

"access_rubrica_rubrica_user","cbase.rubrica_rubrica ente","model_rubrica_rubrica","base.group_cbase_ente",1,0,0,0



"access_rubrica_rubrica_Admin","cbase.rubrica_rubrica Admin","model_rubrica_rubrica","base.group_cbase_Admin",1,1,1,1


"access_rubrica_rubrica_centro","cbase.rubrica_rubrica centro","model_rubrica_rubrica","base.group_cbase_centro",1,1,1,0


"access_rubrica_rubrica_entep","cbase.rubrica_rubrica entep","model_rubrica_rubrica","base.group_cbase_entep",1,1,1,0



"access_rubrica_rubrica_maga","cbase.rubrica_rubrica maga","model_rubrica_rubrica","base.group_cbase_maga",1,1,1,1




