"id","name","model_id:id","group_id:id","perm_read","perm_write","perm_create","perm_unlink"
"access_cborse_func_user","cbase.cborse_func ente","model_cborse_func","base.group_cbase_ente",1,0,0,0
"access_cborse_cgiorni_user","cbase.cborse_cgiorni ente","model_cborse_cgiorni","base.group_cbase_ente",1,0,0,0
"access_cborse_cmesi_user","cbase.cborse_cmesi ente","model_cborse_cmesi","base.group_cbase_ente",1,0,0,0
"access_cborse_cdate_user","cbase.cborse_cdate ente","model_cborse_cdate","base.group_cbase_ente",1,0,0,0
"access_cborse_conf_user","cbase.cborse_conf ente","model_cborse_conf","base.group_cbase_ente",1,0,0,0
"access_cborse_calend_user","cbase.cborse_calend ente","model_cborse_calend","base.group_cbase_ente",1,0,0,0
"access_cborse_auto_user","cbase.cborse_auto ente","model_cborse_auto","base.group_cbase_ente",1,0,0,0
"access_cborse_borse_user","cbase.cborse_borse ente","model_cborse_borse","base.group_cbase_ente",1,0,0,0
"access_cborse_borsa_user","cbase.cborse_borsa ente","model_cborse_borsa","base.group_cbase_ente",1,0,0,0

"access_cborse_func_Admin","cbase.cborse_func Admin","model_cborse_func","base.group_cbase_Admin",1,1,1,1
"access_cborse_cgiorni_Admin","cbase.cborse_cgiorni Admin","model_cborse_cgiorni","base.group_cbase_Admin",1,1,1,1
"access_cborse_cmesi_Admin","cbase.cborse_cmesi Admin","model_cborse_cmesi","base.group_cbase_Admin",1,1,1,1
"access_cborse_cdate_Admin","cbase.cborse_cdate Admin","model_cborse_cdate","base.group_cbase_Admin",1,1,1,1
"access_cborse_conf_Admin","cbase.cborse_conf Admin","model_cborse_conf","base.group_cbase_Admin",1,1,1,1
"access_cborse_calend_Admin","cbase.cborse_calend Admin","model_cborse_calend","base.group_cbase_Admin",1,1,1,1
"access_cborse_auto_Admin","cbase.cborse_auto Admin","model_cborse_auto","base.group_cbase_Admin",1,1,1,1
"access_cborse_borse_Admin","cbase.cborse_borse Admin","model_cborse_borse","base.group_cbase_Admin",1,1,1,1
"access_cborse_borsa_Admin","cbase.cborse_borsa Admin","model_cborse_borsa","base.group_cbase_Admin",1,1,1,1

"access_cborse_func_centro","cbase.cborse_func centro","model_cborse_func","base.group_cbase_centro",1,1,1,0
"access_cborse_cgiorni_centro","cbase.cborse_cgiorni centro","model_cborse_cgiorni","base.group_cbase_centro",1,1,1,0
"access_cborse_cmesi_centro","cbase.cborse_cmesi centro","model_cborse_cmesi","base.group_cbase_centro",1,1,1,0
"access_cborse_cdate_centro","cbase.cborse_cdate centro","model_cborse_cdate","base.group_cbase_centro",1,1,1,0
"access_cborse_conf_centro","cbase.cborse_conf centro","model_cborse_conf","base.group_cbase_centro",1,1,1,0
"access_cborse_calend_centro","cbase.cborse_calend centro","model_cborse_calend","base.group_cbase_centro",1,1,1,0
"access_cborse_auto_centro","cbase.cborse_auto centro","model_cborse_auto","base.group_cbase_centro",1,1,1,0
"access_cborse_borse_centro","cbase.cborse_borse centro","model_cborse_borse","base.group_cbase_centro",1,1,1,0
"access_cborse_borsa_centro","cbase.cborse_borsa centro","model_cborse_borsa","base.group_cbase_centro",1,1,0,0

"access_cborse_func__maga","cbase.cborse_func maga","model_cborse_func","base.group_cbase_maga",1,1,1,1
"access_cborse_cgiorni_maga","cbase.cborse_cgiorni maga","model_cborse_cgiorni","base.group_cbase_maga",1,1,1,1
"access_cborse_cmesi_maga","cbase.cborse_cmesi maga","model_cborse_cmesi","base.group_cbase_maga",1,1,1,1
"access_cborse_cdate_maga","cbase.cborse_cdate maga","model_cborse_cdate","base.group_cbase_maga",1,1,1,1
"access_cborse_conf_maga","cbase.cborse_conf maga","model_cborse_conf","base.group_cbase_maga",1,1,1,1
"access_cborse_calend_maga","cbase.cborse_calend maga","model_cborse_calend","base.group_cbase_maga",1,1,1,1
"access_cborse_auto_maga","cbase.cborse_auto maga","model_cborse_auto","base.group_cbase_maga",1,1,1,1
"access_cborse_borse_maga","cbase.cborse_borse maga","model_cborse_borse","base.group_cbase_maga",1,1,1,1
"access_cborse_borsa_maga","cbase.cborse_borsa maga","model_cborse_borsa","base.group_cbase_maga",1,1,1,1

